<?xml version="1.0" encoding="UTF-8"?>
<svg width="22px" height="22px" viewBox="0 0 22 22" version="1.1" xmlns="http://www.w3.org/2000/svg" xmlns:xlink="http://www.w3.org/1999/xlink">
    <!-- Generator: Sketch 53.2 (72643) - https://sketchapp.com -->
    <title>icon-informacion</title>
    <desc>Created with Sketch.</desc>
    <g id="Page-1" stroke="none" stroke-width="1" fill="none" fill-rule="evenodd">
        <g id="Nueva-linea-confirmación&quot;Primer-plan&quot;" transform="translate(-373.000000, -197.000000)">
            <g id="icon-informacion" transform="translate(374.000000, 198.000000)">
                <circle id="Oval" stroke="#FF3D00" fill="#FFFFFF" fill-rule="nonzero" cx="9.92156863" cy="10.1568627" r="9.80392157"></circle>
                <path d="M9.92156863,19.6813725 C4.5545118,19.6817919 0.184735253,15.3666375 0.117647059,10 C0.117647059,10.0404412 0.117647059,10.0808824 0.117647059,10.122549 C0.117647059,15.5371054 4.50701226,19.9264706 9.92156863,19.9264706 C15.336125,19.9264706 19.7254902,15.5371054 19.7254902,10.122549 C19.7254902,10.0808824 19.7254902,10.0404412 19.7254902,10 C19.658402,15.3666375 15.2886255,19.6817919 9.92156863,19.6813725 L9.92156863,19.6813725 Z" id="Shape" fill="#000000" fill-rule="nonzero" opacity="0.06"></path>
                <path d="M10,13.9176313 L10,7.64705882" id="1e7dc3f0-7e6a-4498-8f55-61b5f5ffd27e" stroke="#FF3D00" stroke-width="1.2" stroke-linecap="round" stroke-linejoin="round"></path>
                <path d="M8.23529412,14.1176471 L11.7647059,14.1176471" id="dd54ec52-7b26-4041-820d-b465b773bca3" stroke="#FF3D00" stroke-width="1.2" stroke-linecap="round" stroke-linejoin="round"></path>
                <path d="M8.23529412,7.64705882 L10,7.64705882" id="18668d4b-662c-466a-8371-9cdec45cb967" stroke="#FF3D00" stroke-width="1.2" stroke-linecap="round" stroke-linejoin="round"></path>
                <circle id="8ec3a14e-1a0d-426b-90ec-cee29d572dbb" fill="#FF3D00" fill-rule="nonzero" cx="9.85294118" cy="5.44117647" r="1"></circle>
            </g>
        </g>
    </g>
</svg>