<?xml version="1.0" encoding="UTF-8"?>
<svg width="35px" height="35px" viewBox="0 0 35 35" version="1.1" xmlns="http://www.w3.org/2000/svg" xmlns:xlink="http://www.w3.org/1999/xlink">
    <!-- Generator: Sketch 52.4 (67378) - http://www.bohemiancoding.com/sketch -->
    <title>messenger</title>
    <desc>Created with Sketch.</desc>
    <g id="Symbols" stroke="none" stroke-width="1" fill="none" fill-rule="evenodd">
        <g id="messenger" fill="#0D4AD3">
            <g id="Group-11" transform="translate(5.000000, 5.000000)">
                <polygon id="Fill-13" points="13.612037 15.3990741 10.6939815 12.2861111 5 15.3990741 11.2643519 8.75 14.2537037 11.862037 19.8759259 8.75"></polygon>
                <path d="M12.1527778,1.38888889 C6.21759259,1.38888889 1.38888889,5.83518519 1.38888889,11.3009259 C1.38888889,14.3041667 2.84305556,17.1134259 5.3787037,19.0087963 C5.55416667,19.1398148 5.65740741,19.3458333 5.65740741,19.5648148 L5.65740741,22.4375 L8.53148148,20.8592593 C8.69027778,20.7708333 8.87731481,20.749537 9.05277778,20.7990741 C10.0453704,21.0763889 11.0884259,21.2175926 12.1527778,21.2175926 C18.087963,21.2175926 22.9166667,16.7712963 22.9166667,11.3055556 C22.9166667,5.8375 18.087963,1.38888889 12.1527778,1.38888889 M4.96296296,24.3055556 C4.84027778,24.3055556 4.71805556,24.2731481 4.60925926,24.2087963 C4.39814815,24.0837963 4.26851852,23.8564815 4.26851852,23.6111111 L4.26851852,19.9064815 C1.55092593,17.7513889 8.8817842e-15,14.6342593 8.8817842e-15,11.3009259 C8.8817842e-15,5.06944444 5.45185185,-4.79616347e-14 12.1527778,-4.79616347e-14 C18.8537037,-4.79616347e-14 24.3055556,5.07175926 24.3055556,11.3055556 C24.3055556,17.537037 18.8537037,22.6064815 12.1527778,22.6064815 C11.0601852,22.6064815 9.98611111,22.4736111 8.95555556,22.2106481 L5.29722222,24.2194444 C5.19305556,24.2768519 5.07777778,24.3055556 4.96296296,24.3055556" id="Fill-15"></path>
            </g>
        </g>
    </g>
</svg>