<?xml version="1.0" encoding="UTF-8"?>
<svg width="35px" height="35px" viewBox="0 0 35 35" version="1.1" xmlns="http://www.w3.org/2000/svg" xmlns:xlink="http://www.w3.org/1999/xlink">
    <!-- Generator: Sketch 52.4 (67378) - http://www.bohemiancoding.com/sketch -->
    <title>whatsapp</title>
    <desc>Created with Sketch.</desc>
    <g id="Symbols" stroke="none" stroke-width="1" fill="none" fill-rule="evenodd">
        <g id="whatsapp" fill="#0D4AD3">
            <g id="Group" transform="translate(5.000000, 5.000000)">
                <path d="M8.30509259,5.44074074 C7.49675926,5.44074074 6.75324074,5.72638889 6.26481481,6.22546296 L6.23935185,6.25092593 C5.85092593,6.6462963 4.81944444,7.69537037 4.81944444,9.69305556 C4.81944444,11.3342593 5.74212963,12.8384259 6.29212963,13.5884259 C6.29722222,13.5949074 6.31574074,13.6203704 6.32083333,13.6273148 L6.34675926,13.6657407 C7.95,15.9875 9.95740741,17.7324074 11.999537,18.5782407 C13.5768519,19.2319444 14.6671296,19.5236111 15.5347222,19.5236111 C15.8986111,19.5236111 16.1824074,19.4740741 16.4115741,19.425 C17.562963,19.1763889 18.999537,18.337963 19.4439815,17.0828704 C19.5425926,16.8046296 20.0074074,15.3759259 19.5194444,14.512963 C19.2421296,14.0310185 18.8208333,13.8282407 18.5134259,13.6800926 C18.4666667,13.6574074 18.4152778,13.6328704 18.3606481,13.6055556 C17.6972222,13.275 16.5527778,12.712963 16.1773148,12.5740741 C15.9305556,12.4824074 15.6805556,12.4351852 15.4342593,12.4351852 C14.7898148,12.4351852 14.2185185,12.7416667 13.825,13.2972222 L13.7101852,13.4583333 C13.6342593,13.5652778 13.5546296,13.6773148 13.4773148,13.7833333 C13.100463,13.6055556 12.5699074,13.3027778 11.9537037,12.7546296 C11.5305556,12.3777778 11.1759259,11.9324074 10.9208333,11.5708333 C10.9412037,11.5481481 10.9615741,11.525463 10.9819444,11.5018519 L11.0083333,11.4712963 C11.1657407,11.2907407 11.3435185,11.0856481 11.5134259,10.7300926 C11.7046296,10.3444444 11.8439815,9.73240741 11.4717593,8.96157407 C11.424537,8.85694444 11.0958333,8.0587963 10.8782407,7.53101852 L10.5824074,6.81481481 C10.0990741,5.65787037 9.32685185,5.47962963 8.70787037,5.45324074 L8.69074074,5.45231481 C8.57453704,5.44675926 8.4462963,5.44074074 8.30509259,5.44074074 M8.30509259,6.82962963 C8.43194444,6.82962963 8.5462963,6.83611111 8.64861111,6.84074074 C8.95,6.85416667 9.10092593,6.87175926 9.29953704,7.34722222 C9.54722222,7.94305556 10.149537,9.41481481 10.2212963,9.56574074 C10.2944444,9.71712963 10.3675926,9.92268519 10.2648148,10.1208333 C10.1689815,10.3263889 10.0842593,10.4171296 9.93287037,10.5912037 C9.78148148,10.7657407 9.63796296,10.8990741 9.48703704,11.0861111 C9.34861111,11.2490741 9.19212963,11.4231481 9.3662037,11.724537 C9.54074074,12.0194444 10.1430556,13.0023148 11.0300926,13.7921296 C12.174537,14.8106481 13.1027778,15.1361111 13.4347222,15.275 C13.5287037,15.3138889 13.6296296,15.3347222 13.7287037,15.3347222 C13.8898148,15.3347222 14.0458333,15.2800926 14.1578704,15.1606481 C14.387037,14.9134259 14.6703704,14.5032407 14.9587963,14.099537 C15.0967593,13.9041667 15.2592593,13.8240741 15.4342593,13.8240741 C15.5185185,13.8240741 15.6060185,13.8430556 15.6944444,13.8768519 C15.9712963,13.9726852 17.4365741,14.6967593 17.7375,14.8467593 C18.0388889,14.9981481 18.2375,15.0699074 18.3106481,15.1967593 C18.3824074,15.3236111 18.3824074,15.9199074 18.1347222,16.6194444 C17.8875,17.3180556 16.9055556,17.8972222 16.1226852,18.0662037 C15.9569444,18.1018519 15.775463,18.1347222 15.5347222,18.1347222 C14.9958333,18.1347222 14.1587963,17.9694444 12.5310185,17.2949074 C9.51759259,16.0462963 7.57731481,12.9842593 7.42592593,12.7856481 C7.28101852,12.5875 6.20833333,11.1643519 6.20833333,9.69305556 C6.20833333,8.22175926 6.95555556,7.50509259 7.25648148,7.19722222 C7.50416667,6.94490741 7.91296296,6.82962963 8.30509259,6.82962963" id="Fill-1"></path>
                <path d="M5.85189815,21.0232407 C5.98708333,21.0232407 6.12134259,21.0625926 6.23662037,21.1394444 C7.98523148,22.3024074 10.0329167,22.9167593 12.1574537,22.9167593 C18.0903241,22.9167593 22.916713,18.0880556 22.916713,12.1528704 C22.916713,6.21768519 18.0903241,1.38898148 12.1574537,1.38898148 L12.1481944,1.38898148 C6.21532407,1.38898148 1.38893519,6.21768519 1.38893519,12.1528704 C1.38893519,14.444537 2.09680556,16.6260185 3.43569444,18.4612037 C3.56856481,18.6426852 3.60467593,18.8778704 3.53337963,19.0912963 L2.53986111,22.0496296 L5.63986111,21.0561111 C5.70930556,21.0338889 5.78060185,21.0232407 5.85189815,21.0232407 M12.1574537,24.3056481 C9.87226852,24.3056481 7.66486111,23.6755556 5.75143519,22.4792593 L1.65606481,23.7912963 C1.40791667,23.87 1.13384259,23.8042593 0.950046296,23.6172222 C0.76625,23.4306481 0.702824074,23.1565741 0.786157407,22.9084259 L2.10421296,18.9834259 C0.726435185,16.9723148 4.62962963e-05,14.6186111 4.62962963e-05,12.1528704 C4.62962963e-05,5.45148148 5.44958333,9.25925925e-05 12.1481944,9.25925925e-05 L12.1574537,9.25925925e-05 C18.8560648,9.25925925e-05 24.3056019,5.45148148 24.3056019,12.1528704 C24.3056019,18.8537963 18.8560648,24.3056481 12.1574537,24.3056481" id="Fill-3"></path>
            </g>
        </g>
    </g>
</svg>