<?xml version="1.0" encoding="UTF-8"?>
<svg width="18px" height="15px" viewBox="0 0 18 15" version="1.1" xmlns="http://www.w3.org/2000/svg" xmlns:xlink="http://www.w3.org/1999/xlink">
    <!-- Generator: sketchtool 52.6 (67491) - http://www.bohemiancoding.com/sketch -->
    <title>C0316454-6E8E-4F17-AC12-98D4B5E7436B</title>
    <desc>Created with sketchtool.</desc>
    <g id="Page-1" stroke="none" stroke-width="1" fill="none" fill-rule="evenodd">
        <g id="Portabilidad-confirmación" transform="translate(-355.000000, -335.000000)" fill="#999999">
            <g id="Group-4" transform="translate(332.000000, 206.000000)">
                <g id="Group-7" transform="translate(23.000000, 129.000000)">
                    <path d="M14.7610667,-3.33333333e-05 L6.07806667,-3.33333333e-05 C4.6394,-3.33333333e-05 3.47306667,1.16596667 3.47306667,2.60463333 L3.47306667,3.4733 L11.2984,3.4733 C12.2520667,3.4733 13.0244,4.24563333 13.0244,5.1993 L13.0244,8.68296667 L16.0157333,8.68296667 L16.4977333,8.68296667 C16.9774,8.68296667 17.3657333,8.2943 17.3657333,7.8143 L17.3657333,2.60463333 C17.3657333,1.16596667 16.1997333,-3.33333333e-05 14.7610667,-3.33333333e-05 M14.7610667,0.867966667 C15.7187333,0.867966667 16.4977333,1.64696667 16.4977333,2.60463333 L16.4977333,7.8143 L16.0157333,7.8143 L13.8930667,7.8143 L13.8930667,5.1993 C13.8930667,3.76863333 12.7290667,2.60463333 11.2984,2.60463333 L4.3414,2.60463333 C4.3414,1.64696667 5.1204,0.867966667 6.07806667,0.867966667 L14.7610667,0.867966667" id="Fill-1"></path>
                    <polygon id="Fill-3" points="3.47333333 6.0779 10.4196667 6.0779 10.4196667 5.2099 3.47333333 5.2099"></polygon>
                    <polygon id="Fill-5" points="3.47333333 8.6829 10.4196667 8.6829 10.4196667 7.81456667 3.47333333 7.81456667"></polygon>
                    <path d="M11.2877667,2.6048 L2.60476667,2.6048 C1.16643333,2.6048 0.0001,3.77113333 0.0001,5.20946667 L0.0001,8.68246667 C0.0001,10.1214667 1.16643333,11.2878 2.60476667,11.2878 L8.6831,11.2878 L12.1561,14.7611333 L12.1561,11.2878 L13.0244333,11.2878 C13.5037667,11.2878 13.8924333,10.8991333 13.8924333,10.4191333 L13.8924333,5.20946667 C13.8924333,3.77113333 12.7264333,2.6048 11.2877667,2.6048 M11.2877667,3.4728 C12.2454333,3.4728 13.0244333,4.2518 13.0244333,5.20946667 L13.0244333,10.4191333 L12.1561,10.4191333 L11.2877667,10.4191333 L11.2877667,11.2878 L11.2877667,12.6648 L9.29676667,10.6738 L9.04276667,10.4191333 L8.6831,10.4191333 L2.60476667,10.4191333 C1.6471,10.4191333 0.8681,9.64013333 0.8681,8.68246667 L0.8681,5.20946667 C0.8681,4.2518 1.6471,3.4728 2.60476667,3.4728 L11.2877667,3.4728" id="Fill-6"></path>
                </g>
            </g>
        </g>
    </g>
</svg>