<?xml version="1.0" encoding="UTF-8"?>
<svg width="24px" height="22px" viewBox="0 0 24 22" version="1.1" xmlns="http://www.w3.org/2000/svg" xmlns:xlink="http://www.w3.org/1999/xlink">
    <!-- Generator: sketchtool 53.2 (72643) - https://sketchapp.com -->
    <title>0092F7AF-D8C4-44C3-8DFE-4CA170873BCC</title>
    <desc>Created with sketchtool.</desc>
    <defs>
        <path d="M10.8379078,1.06001574 L10.8388155,1.05842125 C11.3302559,0.19747689 12.5703196,0.19747689 13.066358,1.06001574 L23.7030423,19.7956696 C24.1872628,20.649524 23.5704,21.7079446 22.5893485,21.7079446 L1.31491726,21.7079446 C0.3338658,21.7079446 -0.282997045,20.649524 0.201406636,19.7953467 L10.8379078,1.06001574 Z M11.9521397,2.28095738 L1.81529232,20.1361887 L22.0889737,20.1361887 L11.9521397,2.28095738 Z M11.1655405,8.0222369 C11.1655405,7.58820849 11.51739,7.23635893 11.9514185,7.23635893 C12.3854469,7.23635893 12.7372964,7.58820849 12.7372964,8.0222369 L12.7372964,15.1551512 C12.7372964,15.5891796 12.3854469,15.9410292 11.9514185,15.9410292 C11.51739,15.9410292 11.1655405,15.5891796 11.1655405,15.1551512 L11.1655405,8.0222369 Z M11.9514185,18.5244244 C11.4061209,18.5244244 10.9640699,18.0823734 10.9640699,17.5370759 C10.9640699,16.9917784 11.4061209,16.5497274 11.9514185,16.5497274 C12.496716,16.5497274 12.938767,16.9917784 12.938767,17.5370759 C12.938767,18.0823734 12.496716,18.5244244 11.9514185,18.5244244 Z" id="path-1"></path>
    </defs>
    <g id="Movil-Portabilidad" stroke="none" stroke-width="1" fill="none" fill-rule="evenodd">
        <g id="Portabilidad-4" transform="translate(-476.000000, -651.000000)">
            <g id="Group-4" transform="translate(412.000000, 630.000000)">
                <g id="icon/letra-W/Warning" transform="translate(64.000000, 20.000000)">
                    <g id="icon/letra-W/48px/Warning" transform="translate(0.000000, 1.000000)">
                        <mask id="mask-2" fill="white">
                            <use xlink:href="#path-1"></use>
                        </mask>
                        <g id="Combined-Shape" fill-rule="nonzero"></g>
                        <rect id="🎨-color" fill="#002EFF" mask="url(#mask-2)" x="0" y="-1" width="24" height="24"></rect>
                    </g>
                </g>
            </g>
        </g>
    </g>
</svg>